Random effects in ML
…
The more complicated model #1

Now the question is what is happening in our ML framework…

rec_2 <- recipe(yield ~ fertilizer + field, data = dat2) |>
  step_lencode_mixed(field, outcome = vars(yield))
prep(rec_2) |> bake(new_data = dat2)

# A tibble: 30 × 3
   fertilizer field yield
        <dbl> <dbl> <dbl>
 1         10  4.92   1.8
 2         20  4.92   2.9
 3         30  4.92   4.1
 4         40  4.92   5  
 5         50  4.92   6.2
 6         60  4.92   7.1
 7         10  6.73   4.5
 8         20  6.73   5.8
 9         30  6.73   6.9
10         40  6.73   8.1
# ℹ 20 more rows
…
